,ranking_2021,change_from_2020,city,country,total_score,quatity_score,quality_score,business_score,change_sign,change_vector,ranking_2020
0,1,0,San Francisco Bay, United States,328.966,29.14,296.02,3.8,,0.0,1.0
1,2,0,New York, United States,110.777,11.43,95.55,3.8,,0.0,2.0
2,3,3,Beijing, China,66.049,5.01,58.61,2.43,+,3.0,6.0
3,4,1,Los Angeles Area, United States,58.441,11.23,43.41,3.8,+,1.0,5.0
4,5,2,London, United Kingdom,56.913,15.77,37.44,3.7,-,-2.0,3.0
5,6,2,Boston Area, United States,49.835,5.5,40.53,3.8,-,-2.0,4.0
6,7,3,Shanghai, China,42.162,3.57,36.17,2.43,+,3.0,10.0
7,8,1,Tel Aviv Area, Israel,27.084,4.04,19.92,3.13,-,-1.0,7.0
8,9,0,Moscow, Russia,25.401,7.37,15.64,2.39,,0.0,9.0
9,10,4,Bangalore, India,25.367,5.04,17.95,2.38,+,4.0,14.0
10,11,1,Paris, France,25.297,5.27,16.62,3.41,+,1.0,12.0
11,12,1,Seattle, United States,24.329,3.49,17.04,3.8,-,-1.0,11.0
12,13,5,Berlin, Germany,23.872,4.03,16.35,3.49,-,-5.0,8.0
13,14,1,New Delhi, India,22.379,5.88,13.9,2.61,+,1.0,15.0
14,15,1,Tokyo, Japan,21.792,2.5,16.0,3.3,+,1.0,16.0
15,16,6,Mumbai, India,19.414,3.27,13.54,2.61,+,6.0,22.0
16,17,4,Chicago, United States,19.121,4.37,10.95,3.8,-,-4.0,13.0
17,18,1,Austin, United States,18.598,3.2,11.6,3.8,-,-1.0,17.0
18,19,11,Washington DC Area, United States,18.064,3.47,10.79,3.8,+,11.0,30.0
19,20,2,Sao Paulo, Brazil,17.642,2.63,12.72,2.29,-,-2.0,18.0
20,21,12,Shenzhen, China,17.403,1.76,13.66,1.99,+,12.0,33.0
21,22,6,San Diego, United States,17.272,2.64,10.83,3.8,+,6.0,28.0
22,23,2,Seoul, South Korea,16.68,1.6,11.83,3.24,-,-2.0,21.0
23,24,5,Stockholm, Sweden,15.748,1.83,10.13,3.78,+,5.0,29.0
24,25,1,Singapore City, Singapore,15.713,3.16,9.25,3.3,+,1.0,26.0
25,26,2,Toronto, Canada,15.678,4.64,7.49,3.55,-,-2.0,24.0
26,27,4,Dallas-Fort Worth, United States,15.535,2.9,8.84,3.8,-,-4.0,23.0
27,28,9,Atlanta, United States,15.106,2.59,8.72,3.8,-,-9.0,19.0
28,29,9,Amsterdam, The Netherlands,13.578,2.46,7.82,3.3,-,-9.0,20.0
29,30,4,Denver, United States,13.554,2.36,7.39,3.8,+,4.0,34.0
30,31,6,Miami Area, United States,13.213,3.21,6.21,3.8,-,-6.0,25.0
31,32,4,Hong Kong, China,13.2,2.77,8.18,2.26,+,4.0,36.0
32,33,12,Hangzhou, China,13.167,0.95,10.14,2.08,+,12.0,45.0
33,34,7,Jakarta, Indonesia,13.158,1.7,9.76,1.71,+,7.0,41.0
34,35,9,Philadelphia, United States,13.111,1.7,7.62,3.8,+,9.0,44.0
35,36,5,Sydney, Australia,11.998,3.13,5.37,3.5,-,-5.0,31.0
36,37,10,Barcelona, Spain,11.918,3.17,5.43,3.31,-,-10.0,27.0
37,38,0,Munich, Germany,11.769,1.8,6.47,3.49,,0.0,38.0
38,39,1,Melbourne, Australia,10.572,2.14,4.93,3.5,+,1.0,40.0
39,40,3,Raleigh Durham, United States,10.474,1.09,5.8,3.58,+,3.0,43.0
40,41,1,Taipei City, Taiwan,10.45,2.39,4.48,3.58,+,1.0,42.0
41,42,5,Vancouver, Canada,10.35,2.39,4.41,3.55,-,-5.0,37.0
42,43,7,Minneapolis, United States,10.219,1.12,5.3,3.8,+,7.0,50.0
43,44,5,Helsinki, Finland,10.006,1.77,4.6,3.64,-,-5.0,39.0
44,45,10,Madrid, Spain,9.553,2.4,3.84,3.31,-,-10.0,35.0
45,46,3,Montreal, Canada,9.248,1.79,3.91,3.55,+,3.0,49.0
46,47,5,Phoenix, United States,8.469,1.58,3.09,3.8,+,5.0,52.0
47,48,16,Kiev, Ukraine,8.436,1.86,3.97,2.6,-,-16.0,32.0
48,49,1,Detroit, United States,8.402,1.19,3.41,3.8,-,-1.0,48.0
49,50,3,Mexico City, Mexico,8.385,1.24,4.6,2.54,+,3.0,53.0
50,51,3,Dublin, Ireland,8.309,1.6,3.27,3.44,+,3.0,54.0
51,52,7,Houston, United States,8.251,1.34,3.11,3.8,+,7.0,59.0
52,53,2,Portland, United States,7.974,1.38,2.79,3.8,-,-2.0,51.0
53,54,1,Jerusalem, Israel,7.776,0.98,3.67,3.13,+,1.0,55.0
54,55,16,Salt Lake City, United States,7.719,0.77,3.76,3.19,+,16.0,71.0
55,56,6,Milan, Italy,7.529,1.53,2.94,3.06,+,6.0,62.0
56,57,8,Zurich, Switzerland,7.524,1.54,2.44,3.54,+,8.0,65.0
57,58,11,Charlotte, United States,7.517,0.82,2.9,3.8,+,11.0,69.0
58,59,4,Boulder, United States,7.174,1.32,2.05,3.8,+,4.0,63.0
59,60,14,Buenos Aires, Argentina,7.152,1.84,3.33,1.98,-,-14.0,46.0
60,61,6,Copenhagen, Denmark,7.055,1.26,2.15,3.65,+,6.0,67.0
61,62,6,Las Vegas, United States,7.023,1.01,2.22,3.8,-,-6.0,56.0
62,63,11,Nashville, United States,6.917,0.76,2.36,3.8,+,11.0,74.0
63,64,17,Hamburg, Germany,6.897,1.19,2.22,3.49,-,-17.0,47.0
64,65,35,Guangzhou, China,6.893,0.63,4.09,2.18,+,35.0,100.0
65,66,0,Tallinn, Estonia,6.888,1.14,2.44,3.31,,0.0,66.0
66,67,32,Dubai, United Arab Emirates,6.883,1.87,2.21,2.8,+,32.0,99.0
67,68,11,Manchester, United Kingdom,6.877,0.68,2.49,3.7,+,11.0,79.0
68,69,11,Istanbul, Turkey,6.733,2.25,1.79,2.69,+,11.0,80.0
69,70,10,Santiago, Chile,6.67,1.55,2.49,2.63,-,-10.0,60.0
70,71,19,Bangkok, Thailand,6.558,1.15,3.05,2.36,+,19.0,90.0
71,72,8,Brussels, Belgium,6.502,1.13,2.07,3.31,-,-8.0,64.0
72,73,15,Pittsburgh, United States,6.452,0.88,1.77,3.8,-,-15.0,58.0
73,74,13,Santa Barbara, United States,6.432,0.25,2.38,3.8,-,-13.0,61.0
74,75,20,Columbus, United States,6.391,0.76,1.83,3.8,+,20.0,95.0
75,76,99,Cambridge, United Kingdom,6.373,0.41,2.4,3.56,+,99.0,175.0
76,77,0,Bogota, Colombia,6.364,1.13,2.95,2.28,,0.0,77.0
77,78,5,Warsaw, Poland,6.345,1.07,2.1,3.17,-,-5.0,73.0
78,79,153,Provo, United States,6.33,0.42,2.11,3.8,+,153.0,232.0
79,80,14,Kuala Lumpur, Malaysia,6.298,1.25,1.98,3.06,+,14.0,94.0
80,81,5,Tampa Bay Area, United States,6.275,0.83,1.65,3.8,-,-5.0,76.0
81,82,3,Lisbon, Portugal,6.113,1.22,1.74,3.16,+,3.0,85.0
82,83,2,Prague, Czechia,6.093,1.02,1.81,3.26,-,-2.0,81.0
83,84,9,Vilnius, Lithuania,6.037,1.37,1.42,3.25,-,-9.0,75.0
84,85,1,Vienna, Austria,5.972,1.11,1.35,3.52,-,-1.0,84.0
85,86,63,Chengdu, China,5.963,0.34,3.43,2.2,+,63.0,149.0
86,87,1,Manila Area, Philippines,5.948,1.58,2.11,2.26,+,1.0,88.0
87,88,33,Sacramento, United States,5.923,0.5,1.62,3.8,+,33.0,121.0
88,89,32,Ottawa, Canada,5.88,0.67,1.66,3.55,-,-32.0,57.0
89,90,22,Bristol, United Kingdom,5.703,0.47,1.52,3.7,-,-22.0,68.0
90,91,32,Cincinnati, United States,5.682,0.5,1.38,3.8,+,32.0,123.0
91,92,86,Oxford, United Kingdom,5.638,0.36,1.58,3.7,+,86.0,178.0
92,93,21,Basel, Switzerland,5.512,0.36,1.61,3.54,-,-21.0,72.0
93,94,4,Madison, United States,5.495,0.69,1.01,3.8,+,4.0,98.0
94,95,93,Wilmington, United States,5.485,0.31,1.38,3.8,+,93.0,188.0
95,96,46,Lausanne, Switzerland,5.453,0.45,1.46,3.54,+,46.0,142.0
96,97,14,Frankfurt, Germany,5.438,0.65,1.3,3.49,-,-14.0,83.0
97,98,9,Kansas City, United States,5.402,0.59,1.02,3.8,-,-9.0,89.0
98,99,6,Oslo, Norway,5.397,0.65,1.09,3.66,+,6.0,105.0
99,100,8,Baltimore, United States,5.337,0.92,0.62,3.8,-,-8.0,92.0
100,101,19,Kitchener Waterloo, Canada,5.332,0.7,1.08,3.55,+,19.0,120.0
101,102,31,Edinburgh, United Kingdom,5.27,0.51,1.05,3.7,+,31.0,133.0
102,103,33,Columbia, United States,5.262,0.23,1.24,3.8,-,-33.0,70.0
103,104,2,Pune, India,5.261,1.43,1.22,2.61,-,-2.0,102.0
104,105,19,Auckland, New Zealand,5.193,0.6,0.9,3.69,+,19.0,124.0
105,106,10,Hyderabad, India,5.161,1.75,0.81,2.61,-,-10.0,96.0
106,107,25,Orlando, United States,5.139,0.84,0.5,3.8,-,-25.0,82.0
107,108,49,Stuttgart, Germany,5.115,0.39,1.23,3.49,+,49.0,157.0
108,109,83,Santa Cruz, United States,5.024,0.23,0.99,3.8,+,83.0,192.0
109,110,4,San Antonio, United States,5.021,0.48,0.74,3.8,-,-4.0,106.0
110,111,8,Bucharest, Romania,5.014,0.78,1.34,2.89,-,-8.0,103.0
111,112,34,Brisbane, Australia,4.945,0.86,0.58,3.5,-,-34.0,78.0
112,113,22,New Orleans, United States,4.885,0.35,0.74,3.8,+,22.0,135.0
113,114,98,Birmingham, United Kingdom,4.882,0.32,0.86,3.7,+,98.0,212.0
114,115,51,Burlington, United States,4.868,0.26,0.81,3.8,+,51.0,166.0
115,116,19,Calgary, Canada,4.849,0.72,0.59,3.55,-,-19.0,97.0
116,117,9,Indianapolis, United States,4.83,0.52,0.51,3.8,-,-9.0,108.0
117,118,11,Geneva, Switzerland,4.825,0.5,0.78,3.54,+,11.0,129.0
118,119,24,Haifa, Israel,4.777,0.25,1.4,3.13,+,24.0,143.0
119,120,21,Porto, Portugal,4.763,0.44,1.22,3.1,+,21.0,141.0
120,121,35,Sofia, Bulgaria,4.755,1.47,0.54,2.75,-,-35.0,86.0
121,122,5,Lagos, Nigeria,4.693,1.26,2.03,1.41,+,5.0,127.0
122,123,134,The Hague, The Netherlands,4.644,0.46,0.89,3.3,+,134.0,257.0
123,124,127,Kyoto, Japan,4.63,0.29,1.19,3.15,+,127.0,251.0
124,125,14,Quebec City, Canada,4.624,0.58,0.94,3.1,+,14.0,139.0
125,126,35,Edmonton, Canada,4.604,0.69,0.37,3.55,-,-35.0,91.0
126,127,5,Cologne, Germany,4.584,0.59,0.5,3.49,-,-5.0,122.0
127,128,54,Osaka, Japan,4.564,0.13,1.13,3.3,+,54.0,182.0
128,129,81,Albuquerque, United States,4.525,0.2,0.75,3.58,+,81.0,210.0
129,130,345,Rhine-Neckar Area, Germany,4.511,0.2,0.82,3.49,+,345.0,475.0
130,131,30,Utrecht, The Netherlands,4.497,0.4,0.79,3.3,+,30.0,161.0
131,132,73,Toulouse, France,4.477,0.33,0.74,3.41,+,73.0,205.0
132,133,20,Chennai, India,4.448,1.06,0.78,2.61,-,-20.0,113.0
133,134,47,Budapest, Hungary,4.357,1.04,0.41,2.91,-,-47.0,87.0
134,135,23,Kaunas, Lithuania,4.302,0.73,0.32,3.25,-,-23.0,112.0
135,136,20,Nairobi, Kenya,4.277,0.75,0.95,2.58,-,-20.0,116.0
136,137,106,Malmö, Sweden,4.27,0.21,0.69,3.38,+,106.0,243.0
137,138,27,Lima, Peru,4.253,0.5,1.45,2.31,-,-27.0,111.0
138,139,26,St. Louis, United States,4.245,0.46,0.42,3.36,+,26.0,165.0
139,140,36,Rome, Italy,4.205,0.8,0.35,3.06,-,-36.0,104.0
140,141,3,Kingston, Canada,4.193,0.57,0.59,3.03,+,3.0,144.0
141,142,48,Buffalo, United States,4.142,0.2,0.66,3.28,+,48.0,190.0
142,143,139,Bend, United States,4.054,0.1,0.74,3.21,+,139.0,282.0
143,144,39,Curitiba, Brazil,4.053,0.36,1.4,2.29,+,39.0,183.0
144,145,1,Cape Town, South Africa,4.047,0.8,0.94,2.31,+,1.0,146.0
145,146,10,Valencia, Spain,4.021,0.47,0.47,3.09,+,10.0,156.0
146,147,37,Cleveland, United States,4.015,0.51,0.33,3.18,-,-37.0,110.0
147,148,55,Rio de Janeiro, Brazil,4.003,0.6,1.12,2.29,-,-55.0,93.0
148,149,40,Monterrey, Mexico,3.997,0.35,1.1,2.54,-,-40.0,109.0
149,150,31,Krakow, Poland,3.988,0.58,0.38,3.03,+,31.0,181.0
150,151,25,Xiamen, China,3.87,0.17,1.27,2.43,-,-25.0,126.0
151,152,8,Johannesburg, South Africa,3.864,0.5,1.05,2.31,+,8.0,160.0
152,153,46,Athens, Greece,3.783,0.63,0.42,2.73,-,-46.0,107.0
153,154,53,Belo Horizonte, Brazil,3.763,0.52,0.96,2.29,-,-53.0,101.0
154,155,37,Riga, Latvia,3.685,0.59,0.3,2.79,-,-37.0,118.0
155,156,42,Guadalajara, Mexico,3.682,0.35,0.79,2.54,-,-42.0,114.0
156,157,36,Eindhoven, The Netherlands,3.552,0.58,0.24,2.73,+,36.0,193.0
157,158,5,Ghent, Belgium,3.524,0.45,0.37,2.71,+,5.0,163.0
158,159,40,Belgrade, Serbia,3.489,0.68,0.27,2.54,-,-40.0,119.0
159,160,8,Louisville, United States,3.415,0.27,0.45,2.7,-,-8.0,152.0
160,161,198,Bonn, Germany,3.41,0.11,0.65,2.65,+,198.0,359.0
161,162,new,Busan, South Korea,3.383,0.05,0.75,2.58,,,
162,163,41,Marseille, France,3.314,0.49,0.26,2.56,+,41.0,204.0
163,164,24,Lyon, France,3.304,0.47,0.27,2.56,-,-24.0,140.0
164,165,110,Montevideo, Uruguay,3.275,0.21,0.84,2.22,+,110.0,275.0
165,166,29,Zug, Switzerland,3.266,0.25,0.47,2.55,+,29.0,195.0
166,167,50,Leipzig, Germany,3.232,0.52,0.2,2.51,-,-50.0,117.0
167,168,3,Wrocław, Poland,3.209,0.44,0.33,2.44,+,3.0,171.0
168,169,146,Abu Dhabi, United Arab Emirates,3.188,0.2,0.64,2.35,+,146.0,315.0
169,170,32,Lexington, United States,3.185,0.18,0.48,2.52,-,-32.0,138.0
170,171,4,Gothenburg, Sweden,3.075,0.25,0.4,2.43,-,-4.0,167.0
171,172,47,Rotterdam, The Netherlands,3.027,0.48,0.22,2.32,-,-47.0,125.0
172,173,41,Milwaukee, United States,2.995,0.4,0.22,2.37,-,-41.0,132.0
173,174,82,Wuhan, China,2.968,0.17,1.18,1.62,+,82.0,256.0
174,175,39,Perth, Australia,2.924,0.37,0.28,2.27,-,-39.0,136.0
175,176,11,Ahmedabad, India,2.923,0.53,0.28,2.11,+,11.0,187.0
176,177,43,Jacksonville, United States,2.905,0.3,0.31,2.3,-,-43.0,134.0
177,178,63,Zagreb, Croatia,2.898,0.49,0.26,2.15,-,-63.0,115.0
178,179,46,Ho Chi Minh City, Vietnam,2.897,0.4,0.61,1.89,+,46.0,225.0
179,180,21,Cairo, Egypt,2.732,0.95,0.44,1.34,+,21.0,201.0
180,181,305,Mainz, Germany,2.693,0.03,0.57,2.09,+,305.0,486.0
181,182,62,New Haven, United States,2.653,0.16,0.39,2.1,+,62.0,244.0
182,183,52,Medellin, Colombia,2.627,0.44,0.36,1.83,-,-52.0,131.0
183,184,56,Ljubljana, Slovenia,2.574,0.41,0.22,1.94,-,-56.0,128.0
184,185,31,Omaha, United States,2.571,0.22,0.31,2.04,-,-31.0,154.0
185,186,24,Luxembourg City, Luxembourg,2.564,0.45,0.21,1.91,-,-24.0,162.0
186,187,36,Glasgow, United Kingdom,2.54,0.35,0.19,2.0,-,-36.0,151.0
187,188,12,Porto Alegre, Brazil,2.538,0.33,0.45,1.77,+,12.0,200.0
188,189,34,Richmond, United States,2.468,0.33,0.19,1.95,-,-34.0,155.0
189,190,60,Brighton, United Kingdom,2.453,0.32,0.2,1.93,-,-60.0,130.0
190,191,5,Hanoi, Vietnam,2.431,0.4,0.47,1.55,+,5.0,196.0
191,192,89,Riyadh, Saudi Arabia,2.415,0.39,0.34,1.68,+,89.0,281.0
192,193,48,Victoria, Canada,2.414,0.29,0.24,1.88,-,-48.0,145.0
193,194,36,Dusseldorf, Germany,2.294,0.34,0.17,1.78,-,-36.0,158.0
194,195,39,Jaipur, India,2.278,0.37,0.26,1.65,+,39.0,234.0
195,196,48,Bratislava, Slovakia,2.225,0.33,0.21,1.68,-,-48.0,148.0
196,197,12,Boise, United States,2.194,0.13,0.33,1.74,-,-12.0,185.0
197,198,48,Adelaide, Australia,2.17,0.37,0.11,1.69,-,-48.0,150.0
198,199,52,Saint Petersburg, Russia,2.14,0.35,0.23,1.56,-,-52.0,147.0
199,200,26,Belfast, United Kingdom,2.112,0.33,0.12,1.66,-,-26.0,174.0
200,201,2,Amman, Jordan,2.088,0.28,0.33,1.47,+,2.0,203.0
201,202,18,Graz, Austria,2.068,0.27,0.18,1.61,+,18.0,220.0
202,203,35,Charleston, United States,2.044,0.28,0.15,1.62,-,-35.0,168.0
203,204,new,Sankt Gallen, Switzerland,2.042,0.03,0.42,1.59,,,
204,205,760,Nanjing, China,2.041,0.11,0.94,0.99,+,760.0,965.0
205,206,47,Princeton, United States,2.033,0.26,0.16,1.61,-,-47.0,159.0
206,207,6,Newcastle upon Tyne, United Kingdom,1.968,0.2,0.22,1.55,+,6.0,213.0
207,208,new,Reading, United Kingdom,1.961,0.13,0.29,1.54,,,
208,209,21,Hartford, United States,1.957,0.22,0.19,1.55,+,21.0,230.0
209,210,21,Ankara, Turkey,1.932,0.34,0.18,1.41,-,-21.0,189.0
210,211,50,Birmingham-Hoover, United States,1.911,0.23,0.17,1.51,+,50.0,261.0
211,212,21,Leeds, United Kingdom,1.908,0.27,0.13,1.5,-,-21.0,191.0
212,213,75,Lafayette, United States,1.842,0.18,0.2,1.46,+,75.0,288.0
213,214,24,Kolkata, India,1.835,0.37,0.14,1.33,+,24.0,238.0
214,215,16,Bordeaux, France,1.822,0.27,0.15,1.41,+,16.0,231.0
215,216,600,Changsha, China,1.821,0.03,0.81,0.97,+,600.0,816.0
216,217,23,Bilbao, Spain,1.821,0.32,0.11,1.4,-,-23.0,194.0
217,218,7,Fort Collins, United States,1.803,0.17,0.21,1.43,-,-7.0,211.0
218,219,33,Colorado Springs, United States,1.75,0.21,0.15,1.39,-,-33.0,186.0
219,220,50,Poznan, Poland,1.73,0.27,0.14,1.31,-,-50.0,170.0
220,221,55,Reykjavik, Iceland,1.709,0.21,0.24,1.26,+,55.0,276.0
221,222,24,Chattanooga, United States,1.696,0.23,0.12,1.34,-,-24.0,198.0
222,223,50,Providence, United States,1.693,0.21,0.14,1.34,-,-50.0,173.0
223,224,52,Bern, Switzerland,1.673,0.23,0.14,1.3,-,-52.0,172.0
224,225,4,Las Palmas de Gran Canaria, Spain,1.66,0.33,0.06,1.27,+,4.0,229.0
225,226,57,Rochester, United States,1.654,0.16,0.18,1.31,-,-57.0,169.0
226,227,48,Oklahoma City, United States,1.653,0.23,0.11,1.31,-,-48.0,179.0
227,228,17,Aarhus, Denmark,1.643,0.2,0.15,1.29,+,17.0,245.0
228,229,53,Fresno, United States,1.622,0.06,0.28,1.28,-,-53.0,176.0
229,230,33,Minsk, Belarus,1.598,0.33,0.16,1.11,-,-33.0,197.0
230,231,9,Turin, Italy,1.583,0.25,0.14,1.19,+,9.0,240.0
231,232,7,Nantes, France,1.577,0.23,0.13,1.22,+,7.0,239.0
232,233,0,Lille, France,1.549,0.23,0.12,1.2,,0.0,233.0
233,234,11,Halifax, Canada,1.543,0.17,0.17,1.2,-,-11.0,223.0
234,235,58,Brno, Czechia,1.541,0.19,0.17,1.18,-,-58.0,177.0
235,236,671,Chongqing, China,1.512,0.05,0.39,1.07,+,671.0,907.0
236,237,80,Antwerp, Belgium,1.497,0.21,0.14,1.15,+,80.0,317.0
237,238,39,Beer Sheva, Israel,1.49,0.08,0.28,1.13,-,-39.0,199.0
238,239,23,Tucson, United States,1.474,0.19,0.11,1.17,-,-23.0,216.0
239,240,new,Fukuoka, Japan,1.467,0.11,0.23,1.13,,,
240,241,46,Karlsruhe, Germany,1.465,0.13,0.19,1.14,+,46.0,287.0
241,242,62,Grand Rapids, United States,1.453,0.21,0.1,1.15,-,-62.0,180.0
242,243,21,Rennes, France,1.439,0.22,0.1,1.11,-,-21.0,222.0
243,244,2,Nice, France,1.434,0.21,0.12,1.11,-,-2.0,242.0
244,245,8,Santa Cruz de Tenerife, Spain,1.429,0.26,0.07,1.1,-,-8.0,237.0
245,246,38,Nagoya, Japan,1.404,0.07,0.26,1.08,-,-38.0,208.0
246,247,77,Grenoble, France,1.399,0.11,0.21,1.08,+,77.0,324.0
247,248,7,Albany, United States,1.383,0.12,0.17,1.09,+,7.0,255.0
248,249,10,Sunshine Coast, Australia,1.37,0.22,0.09,1.07,+,10.0,259.0
249,250,36,Cluj-Napoca, Romania,1.367,0.27,0.09,1.02,-,-36.0,214.0
250,251,10,Little Rock, United States,1.361,0.17,0.11,1.08,-,-10.0,241.0
251,252,724,TianJin, China,1.356,0.05,0.35,0.96,+,724.0,976.0
252,253,46,Nottingham, United Kingdom,1.355,0.18,0.11,1.07,+,46.0,299.0
253,254,52,Sarasota, United States,1.344,0.19,0.09,1.06,-,-52.0,202.0
254,255,99,Lviv, Ukraine,1.259,0.09,0.26,0.91,+,99.0,354.0
255,256,46,Cardiff, United Kingdom,1.259,0.15,0.12,0.99,+,46.0,302.0
256,257,14,Lahore, Pakistan,1.251,0.4,0.18,0.67,+,14.0,271.0
257,258,11,Florence, Italy,1.251,0.19,0.12,0.94,-,-11.0,247.0
258,259,95,Honolulu, United States,1.249,0.22,0.04,0.99,-,-95.0,164.0
259,260,18,Fort Myers, United States,1.24,0.17,0.09,0.98,+,18.0,278.0
260,261,6,Virginia Beach, United States,1.237,0.2,0.06,0.98,+,6.0,267.0
261,262,43,Winnipeg, Canada,1.231,0.17,0.1,0.96,-,-43.0,219.0
262,263,47,Dhaka, Bangladesh,1.219,0.39,0.18,0.65,+,47.0,310.0
263,264,29,Kochi, India,1.218,0.26,0.08,0.88,+,29.0,293.0
264,265,39,Kigali, Rwanda,1.21,0.12,0.27,0.82,-,-39.0,226.0
265,266,49,Montpellier, France,1.208,0.19,0.09,0.93,-,-49.0,217.0
266,267,46,Reno, United States,1.206,0.18,0.07,0.95,-,-46.0,221.0
267,268,16,Cebu City, Philippines,1.203,0.29,0.07,0.84,-,-16.0,252.0
268,269,62,Canberra, Australia,1.202,0.18,0.09,0.94,-,-62.0,207.0
269,270,43,Florianopolis, Brazil,1.164,0.23,0.12,0.81,-,-43.0,227.0
270,271,53,Liverpool, United Kingdom,1.16,0.15,0.09,0.91,-,-53.0,218.0
271,272,597,Zhuhai, China,1.143,0.03,0.31,0.81,+,597.0,869.0
272,273,15,Dresden, Germany,1.142,0.16,0.09,0.89,-,-15.0,258.0
273,274,59,Des Moines, United States,1.139,0.17,0.07,0.9,-,-59.0,215.0
274,275,40,Tartu, Estonia,1.139,0.14,0.11,0.88,-,-40.0,235.0
275,276,52,Gold Coast, Australia,1.136,0.2,0.05,0.88,-,-52.0,224.0
276,277,71,Memphis, United States,1.133,0.16,0.08,0.9,-,-71.0,206.0
277,278,26,Gdańsk, Poland,1.127,0.12,0.15,0.86,+,26.0,304.0
278,279,140,Indore, India,1.112,0.21,0.1,0.8,+,140.0,419.0
279,280,38,Skopje, North Macedonia,1.109,0.07,0.23,0.81,+,38.0,318.0
280,281,70,Accra, Ghana,1.109,0.26,0.15,0.7,+,70.0,351.0
281,282,73,Yerevan, Armenia,1.108,0.2,0.12,0.79,-,-73.0,209.0
282,283,18,Wellington, New Zealand,1.093,0.17,0.06,0.86,-,-18.0,265.0
283,284,12,Yokneam, Israel,1.089,0.16,0.1,0.82,+,12.0,296.0
284,285,new,Hsinchu, Taiwan,1.087,0.04,0.2,0.85,,,
285,286,7,Karachi, Pakistan,1.084,0.33,0.17,0.58,-,-7.0,279.0
286,287,51,Nuremberg, Germany,1.077,0.16,0.08,0.84,-,-51.0,236.0
287,288,21,Coimbatore, India,1.058,0.21,0.08,0.77,+,21.0,309.0
288,289,14,Chandigarh, India,1.05,0.21,0.08,0.76,+,14.0,303.0
289,290,667,Qingdao, China,1.028,0.02,0.28,0.73,+,667.0,957.0
290,291,70,Lincoln, United States,1.028,0.11,0.11,0.81,+,70.0,361.0
291,292,43,Bologna, Italy,1.022,0.16,0.09,0.77,-,-43.0,249.0
292,293,43,Malaga, Spain,1.009,0.18,0.05,0.78,-,-43.0,250.0
293,294,143,Jeddah, Saudi Arabia,1.004,0.23,0.08,0.7,+,143.0,437.0
294,295,54,Darmstadt, Germany,0.995,0.15,0.07,0.77,+,54.0,349.0
295,296,19,Braga, Portugal,0.991,0.15,0.08,0.76,-,-19.0,277.0
296,297,22,Cordoba, Argentina,0.989,0.3,0.04,0.66,+,22.0,319.0
297,298,32,Cali, Colombia,0.985,0.25,0.05,0.69,+,32.0,330.0
298,299,21,Seville, Spain,0.975,0.15,0.07,0.75,+,21.0,320.0
299,300,22,Bloomington, United States,0.969,0.07,0.13,0.77,+,22.0,322.0
300,301,35,Knoxville, United States,0.965,0.11,0.09,0.76,-,-35.0,266.0
301,302,80,Dover, United States,0.957,0.08,0.12,0.76,+,80.0,382.0
302,303,33,Sheffield, United Kingdom,0.933,0.14,0.06,0.73,-,-33.0,270.0
303,304,659,Chaoyang, China,0.919,0.02,0.25,0.65,+,659.0,963.0
304,305,546,Pula, Croatia,0.918,0.01,0.23,0.68,+,546.0,851.0
305,306,60,Southampton, United Kingdom,0.918,0.1,0.1,0.72,-,-60.0,246.0
306,307,173,Linz, Austria,0.917,0.09,0.12,0.71,+,173.0,480.0
307,308,91,Worcester, United States,0.906,0.06,0.13,0.72,+,91.0,399.0
308,309,new,Baoding, China,0.894,0.01,0.25,0.63,,,
309,310,16,Bath, United Kingdom,0.881,0.11,0.07,0.69,-,-16.0,294.0
310,311,115,Leuven, Belgium,0.866,0.1,0.1,0.67,+,115.0,426.0
311,312,35,Greenville, United States,0.862,0.12,0.06,0.68,+,35.0,347.0
312,313,40,Fayetteville, United States,0.862,0.1,0.08,0.68,-,-40.0,273.0
313,314,118,Cork, Ireland,0.853,0.11,0.08,0.66,+,118.0,432.0
314,315,24,Springfield, United States,0.851,0.09,0.08,0.67,-,-24.0,291.0
315,316,63,Syracuse, United States,0.848,0.14,0.04,0.67,-,-63.0,253.0
316,317,46,Franklin, United States,0.847,0.09,0.09,0.67,+,46.0,363.0
317,318,109,Lund, Sweden,0.841,0.12,0.06,0.67,+,109.0,427.0
318,319,6,Galway, Ireland,0.838,0.1,0.09,0.65,-,-6.0,313.0
319,320,15,Norwich, United Kingdom,0.828,0.12,0.06,0.65,-,-15.0,305.0
320,321,21,Corvallis, United States,0.821,0.09,0.08,0.65,-,-21.0,300.0
321,322,30,Hamilton, Canada,0.815,0.12,0.06,0.64,-,-30.0,292.0
322,323,15,Spokane, United States,0.809,0.1,0.07,0.64,-,-15.0,308.0
323,324,44,Asheville, United States,0.804,0.12,0.04,0.64,-,-44.0,280.0
324,325,11,Anchorage, United States,0.8,0.08,0.09,0.63,-,-11.0,314.0
325,326,1,Tampere, Finland,0.79,0.09,0.08,0.62,-,-1.0,325.0
326,327,38,Kelowna, Canada,0.783,0.12,0.06,0.61,-,-38.0,289.0
327,328,2,Morristown, United States,0.776,0.1,0.07,0.61,-,-2.0,326.0
328,329,287,Chemnitz, Germany,0.775,0.04,0.13,0.6,+,287.0,616.0
329,330,30,Guildford, United Kingdom,0.768,0.09,0.07,0.6,+,30.0,360.0
330,331,336,Bakersfield, United States,0.767,0.02,0.14,0.61,+,336.0,667.0
331,332,11,Oulu, Finland,0.767,0.09,0.08,0.6,+,11.0,343.0
332,333,154,San José, Costa Rica,0.738,0.08,0.13,0.52,+,154.0,487.0
333,334,42,Bournemouth, United Kingdom,0.737,0.08,0.07,0.58,+,42.0,376.0
334,335,45,Wichita, United States,0.737,0.11,0.04,0.58,-,-45.0,290.0
335,336,41,Munster, Germany,0.732,0.11,0.05,0.57,-,-41.0,295.0
336,337,103,Manama, Bahrain,0.732,0.15,0.07,0.52,+,103.0,440.0
337,338,4,Essen, Germany,0.728,0.12,0.04,0.57,-,-4.0,334.0
338,339,3,Brasilia, Brazil,0.725,0.18,0.04,0.5,-,-3.0,336.0
339,340,151,Aachen, Germany,0.724,0.08,0.09,0.56,+,151.0,491.0
340,341,58,Tunis, Tunisia,0.722,0.19,0.07,0.47,-,-58.0,283.0
341,342,488,Lewes, United States,0.719,0.07,0.08,0.57,+,488.0,830.0
342,343,83,Dayton, United States,0.719,0.11,0.04,0.57,-,-83.0,260.0
343,344,new,Stevenage, United Kingdom,0.708,0.01,0.14,0.56,,,
344,345,82,Novi Sad, Serbia,0.698,0.1,0.09,0.51,-,-82.0,263.0
345,346,35,Fredericton, Canada,0.696,0.09,0.06,0.54,+,35.0,381.0
346,347,25,San Juan, Puerto Rico,0.695,0.2,0.06,0.43,+,25.0,372.0
347,348,32,Annapolis, United States,0.695,0.1,0.04,0.55,-,-32.0,316.0
348,349,new,George Town, Malaysia,0.695,0.04,0.13,0.53,,,
349,350,52,Maastricht, The Netherlands,0.693,0.07,0.09,0.53,+,52.0,402.0
350,351,new,Zhengzhou, China,0.691,0.02,0.18,0.49,,,
351,352,8,Beirut, Lebanon,0.689,0.25,0.04,0.4,-,-8.0,344.0
352,353,601,Ibadan, Nigeria,0.688,0.02,0.26,0.4,+,601.0,954.0
353,354,223,Odense, Denmark,0.687,0.06,0.09,0.54,+,223.0,577.0
354,355,20,Gdynia, Poland,0.683,0.1,0.07,0.52,-,-20.0,335.0
355,356,31,Katowice, Poland,0.681,0.09,0.07,0.52,+,31.0,387.0
356,357,553,Nur-Sultan, Kazakhstan,0.676,0.11,0.09,0.48,+,553.0,910.0
357,358,new,Charlottesville, United States,0.676,0.04,0.1,0.54,,,
358,359,3,Hanover, Germany,0.674,0.08,0.07,0.52,+,3.0,362.0
359,360,75,Tulsa, United States,0.674,0.1,0.04,0.53,-,-75.0,285.0
360,361,62,Strasbourg, France,0.67,0.08,0.07,0.52,+,62.0,423.0
361,362,30,Surat, India,0.667,0.13,0.05,0.48,-,-30.0,332.0
362,363,77,Marietta, United States,0.666,0.1,0.04,0.53,-,-77.0,286.0
363,364,14,Casablanca, Morocco,0.665,0.14,0.06,0.46,+,14.0,378.0
364,365,new,Saint Helier, Jersey,0.665,0.1,0.57,0.0,,,
365,366,279,Lucerne, Switzerland,0.664,0.06,0.09,0.52,+,279.0,645.0
366,367,23,Trondheim, Norway,0.664,0.09,0.05,0.52,+,23.0,390.0
367,368,21,Bandung, Indonesia,0.638,0.15,0.08,0.41,+,21.0,389.0
368,369,62,Kampala, Uganda,0.634,0.2,0.06,0.37,-,-62.0,307.0
369,370,33,Ithaca, United States,0.632,0.08,0.06,0.5,-,-33.0,337.0
370,371,40,Savannah, United States,0.631,0.1,0.04,0.5,-,-40.0,331.0
371,372,78,Valletta, Malta,0.631,0.13,0.05,0.45,+,78.0,450.0
372,373,111,Winston-Salem, United States,0.631,0.08,0.06,0.5,+,111.0,484.0
373,374,38,Colombo, Sri Lanka,0.627,0.18,0.05,0.41,+,38.0,412.0
374,375,33,Gainesville, United States,0.627,0.07,0.06,0.5,-,-33.0,342.0
375,376,81,Stavanger, Norway,0.62,0.06,0.08,0.49,+,81.0,457.0
376,377,71,Campinas, Brazil,0.616,0.12,0.07,0.43,-,-71.0,306.0
377,378,586,Ningbo, China,0.615,0.08,0.1,0.44,+,586.0,964.0
378,379,117,Thessaloniki, Greece,0.609,0.12,0.04,0.45,-,-117.0,262.0
379,380,15,Turku, Finland,0.596,0.09,0.04,0.47,+,15.0,395.0
380,381,48,New Brunswick, United States,0.593,0.08,0.04,0.47,-,-48.0,333.0
381,382,230,Medford, United States,0.589,0.02,0.1,0.47,+,230.0,612.0
382,383,15,Santa Fe, United States,0.586,0.06,0.07,0.46,+,15.0,398.0
383,384,61,Izmir, Turkey,0.583,0.12,0.04,0.42,+,61.0,445.0
384,385,8,Santa Rosa, United States,0.582,0.08,0.04,0.46,-,-8.0,377.0
385,386,88,Dortmund, Germany,0.581,0.1,0.03,0.45,+,88.0,474.0
386,387,75,Venice, Italy,0.577,0.07,0.07,0.43,-,-75.0,312.0
387,388,new,Jackson, United States,0.575,0.07,0.05,0.46,,,
388,389,new,Quanzhou, China,0.573,0.01,0.16,0.41,,,
389,390,292,Liege, Belgium,0.572,0.07,0.07,0.44,+,292.0,682.0
390,391,23,Timisoara, Romania,0.563,0.11,0.04,0.42,-,-23.0,368.0
391,392,25,Huntington, United States,0.557,0.07,0.05,0.44,-,-25.0,367.0
392,393,20,Manchester, United States,0.554,0.05,0.06,0.44,-,-20.0,373.0
393,394,38,Odessa, Ukraine,0.551,0.1,0.05,0.4,-,-38.0,356.0
394,395,50,Groningen, The Netherlands,0.55,0.1,0.03,0.42,-,-50.0,345.0
395,396,25,Christchurch, New Zealand,0.55,0.08,0.04,0.43,+,25.0,421.0
396,397,57,Chiang Mai, Thailand,0.55,0.12,0.04,0.39,-,-57.0,340.0
397,398,28,San Luis Obispo, United States,0.544,0.06,0.06,0.43,-,-28.0,370.0
398,399,127,Quito, Ecuador,0.543,0.13,0.08,0.34,-,-127.0,272.0
399,400,34,Novosibirsk, Russia,0.541,0.1,0.04,0.39,-,-34.0,366.0
400,401,new,Freiburg, Germany,0.539,0.03,0.09,0.42,,,
401,402,134,Missoula, United States,0.539,0.05,0.07,0.43,+,134.0,536.0
402,403,53,Catania, Italy,0.538,0.09,0.04,0.41,-,-53.0,350.0
403,404,7,Enschede, The Netherlands,0.538,0.08,0.04,0.41,-,-7.0,397.0
404,405,40,Maribor, Slovenia,0.538,0.07,0.06,0.41,-,-40.0,365.0
405,406,113,Thiruvananthapuram, India,0.537,0.09,0.06,0.39,+,113.0,519.0
406,407,11,Tbilisi, Georgia,0.535,0.11,0.04,0.39,-,-11.0,396.0
407,408,69,Salzburg, Austria,0.528,0.06,0.06,0.41,-,-69.0,339.0
408,409,105,Midland, United States,0.525,0.03,0.08,0.42,+,105.0,514.0
409,410,55,Saskatoon, Canada,0.524,0.05,0.06,0.41,+,55.0,465.0
410,411,18,Livermore, United States,0.521,0.05,0.06,0.41,+,18.0,429.0
411,412,331,Harrisonburg, United States,0.52,0.02,0.09,0.41,+,331.0,743.0
412,413,12,Vadodara, India,0.52,0.11,0.03,0.38,-,-12.0,401.0
413,414,21,Nicosia, Cyprus,0.517,0.08,0.06,0.38,-,-21.0,393.0
414,415,419,Nashua, United States,0.517,0.03,0.08,0.41,+,419.0,834.0
415,416,8,Uppsala, Sweden,0.513,0.07,0.04,0.41,-,-8.0,408.0
416,417,new,Jiaxing, China,0.513,0.02,0.13,0.36,,,
417,418,59,Iowa City, United States,0.511,0.05,0.06,0.4,+,59.0,477.0
418,419,94,West Chester, United States,0.509,0.05,0.06,0.4,+,94.0,513.0
419,420,10,Varna, Bulgaria,0.508,0.08,0.06,0.37,+,10.0,430.0
420,421,5,Portsmouth, United States,0.498,0.05,0.05,0.39,-,-5.0,416.0
421,422,16,Frederick, United States,0.496,0.07,0.03,0.39,-,-16.0,406.0
422,423,149,Coventry, United Kingdom,0.492,0.05,0.06,0.39,+,149.0,572.0
423,424,15,Westport, United States,0.492,0.06,0.05,0.39,+,15.0,439.0
424,425,11,Lugano, Switzerland,0.492,0.05,0.06,0.38,-,-11.0,414.0
425,426,55,Joinville, Brazil,0.489,0.08,0.07,0.34,-,-55.0,371.0
426,427,new,Dalian, China,0.486,0.02,0.12,0.34,,,
427,428,87,Kazan, Russia,0.484,0.09,0.04,0.35,-,-87.0,341.0
428,429,52,Puebla, Mexico,0.483,0.08,0.06,0.35,+,52.0,481.0
429,430,143,Cheyenne, United States,0.483,0.04,0.06,0.38,+,143.0,573.0
430,431,28,Zaragoza, Spain,0.473,0.07,0.04,0.36,-,-28.0,403.0
431,432,120,Davis, United States,0.473,0.03,0.07,0.37,+,120.0,552.0
432,433,11,Nijmegen, The Netherlands,0.471,0.05,0.06,0.36,-,-11.0,422.0
433,434,33,Bremen, Germany,0.47,0.06,0.04,0.36,+,33.0,467.0
434,435,20,Limassol, Cyprus,0.466,0.05,0.08,0.34,-,-20.0,415.0
435,436,48,Eugene, United States,0.465,0.04,0.05,0.37,-,-48.0,388.0
436,437,122,Islamabad, Pakistan,0.464,0.17,0.05,0.25,+,122.0,559.0
437,438,23,Rijeka, Croatia,0.462,0.08,0.04,0.34,+,23.0,461.0
438,439,31,Hobart, Australia,0.461,0.06,0.04,0.36,+,31.0,470.0
439,440,67,Harrisburg, United States,0.458,0.06,0.03,0.36,+,67.0,507.0
440,441,7,Ghaziabad, India,0.456,0.08,0.05,0.33,+,7.0,448.0
441,442,428,Phuket, Thailand,0.456,0.04,0.1,0.32,+,428.0,870.0
442,443,69,Edison, United States,0.455,0.05,0.04,0.36,-,-69.0,374.0
443,444,113,Fortaleza, Brazil,0.453,0.08,0.06,0.32,+,113.0,557.0
444,445,new,Rouen, France,0.452,0.03,0.08,0.35,,,
445,446,182,Naples, Italy,0.45,0.06,0.05,0.34,-,-182.0,264.0
446,447,13,Concord, United States,0.444,0.04,0.05,0.35,+,13.0,460.0
447,448,91,San Rafael, United States,0.443,0.05,0.04,0.35,-,-91.0,357.0
448,449,32,Traverse City, United States,0.442,0.06,0.04,0.35,-,-32.0,417.0
449,450,22,Greensboro, United States,0.441,0.04,0.05,0.35,+,22.0,472.0
450,451,105,Bergen, Norway,0.441,0.05,0.04,0.35,+,105.0,556.0
451,452,10,Akron, United States,0.437,0.05,0.04,0.35,+,10.0,462.0
452,453,new,Visakhapatnam, India,0.434,0.09,0.03,0.31,,,
453,454,18,Lucknow, India,0.432,0.09,0.03,0.31,-,-18.0,436.0
454,455,132,Baku, Azerbaijan,0.432,0.09,0.04,0.3,-,-132.0,323.0
455,456,26,Faridabad, India,0.428,0.07,0.04,0.31,+,26.0,482.0
456,457,39,Kathmandu, Nepal,0.427,0.11,0.05,0.27,+,39.0,496.0
457,458,131,Trento, Italy,0.427,0.07,0.04,0.32,-,-131.0,327.0
458,459,58,Ashdod, Israel,0.424,0.06,0.04,0.32,+,58.0,517.0
459,460,30,Vaduz, Liechtenstein,0.423,0.06,0.04,0.33,+,30.0,490.0
460,461,103,Recife, Brazil,0.423,0.08,0.05,0.29,-,-103.0,358.0
461,462,42,Lancaster, United States,0.421,0.03,0.06,0.33,+,42.0,504.0
462,463,185,Zapopan, Mexico,0.42,0.08,0.04,0.3,+,185.0,648.0
463,464,new,Newcastle, Australia,0.42,0.06,0.04,0.33,,,
464,465,80,Ostrava, Czechia,0.419,0.05,0.05,0.32,-,-80.0,385.0
465,466,12,Abuja, Nigeria,0.419,0.13,0.04,0.24,-,-12.0,454.0
466,467,83,Sioux Falls, United States,0.417,0.04,0.05,0.33,-,-83.0,384.0
467,468,8,Doha, Qatar,0.417,0.11,0.03,0.27,+,8.0,476.0
468,469,77,Panama City, Panama,0.413,0.08,0.04,0.28,+,77.0,546.0
469,470,53,Regina, Canada,0.412,0.05,0.04,0.32,+,53.0,523.0
470,471,472,Augsburg, Germany,0.412,0.02,0.07,0.32,+,472.0,943.0
471,472,new,Lansing, United States,0.411,0.05,0.04,0.33,,,
472,473,79,Ribeirao Preto, Brazil,0.405,0.09,0.03,0.28,-,-79.0,394.0
473,474,20,Eilat, Israel,0.405,0.07,0.03,0.31,+,20.0,494.0
474,475,new,Chian, China,0.404,0.08,0.04,0.29,,,
475,476,7,South Bend, United States,0.403,0.06,0.03,0.32,+,7.0,483.0
476,477,68,Petaluma, United States,0.402,0.04,0.05,0.32,-,-68.0,409.0
477,478,84,Milton Keynes, United Kingdom,0.402,0.02,0.06,0.32,+,84.0,562.0
478,479,51,Debrecen, Hungary,0.401,0.05,0.06,0.3,+,51.0,530.0
479,480,28,Kuwait City, Kuwait,0.399,0.09,0.05,0.25,+,28.0,508.0
480,481,260,Brookline, United States,0.398,0.01,0.07,0.32,+,260.0,741.0
481,482,341,Carson City, United States,0.394,0.02,0.06,0.31,+,341.0,823.0
482,483,425,Fuzhou, China,0.391,0.07,0.04,0.28,+,425.0,908.0
483,484,64,Iași, Romania,0.388,0.05,0.05,0.29,-,-64.0,420.0
484,485,489,Jinan, China,0.385,0.05,0.06,0.27,+,489.0,974.0
485,486,13,Roswell, United States,0.385,0.05,0.03,0.3,+,13.0,499.0
486,487,139,Michigan City, United States,0.383,0.05,0.03,0.3,-,-139.0,348.0
487,488,53,Tirana, Albania,0.38,0.07,0.06,0.26,-,-53.0,435.0
488,489,new,Esch an der Alzette, Luxembourg,0.38,0.05,0.05,0.28,,,
489,490,11,Pretoria, South Africa,0.376,0.08,0.04,0.26,+,11.0,501.0
490,491,199,Ulaanbaatar, Mongolia,0.375,0.07,0.05,0.26,+,199.0,690.0
491,492,463,Yangon, Myanmar,0.375,0.11,0.1,0.16,+,463.0,955.0
492,493,87,Cagayan de Oro, Philippines,0.373,0.09,0.03,0.26,+,87.0,580.0
493,494,new,Potsdam, Germany,0.373,0.03,0.05,0.29,,,
494,495,197,Addis Ababa, Ethiopia,0.372,0.18,0.08,0.12,+,197.0,692.0
495,496,44,Baton Rouge, United States,0.372,0.04,0.03,0.29,-,-44.0,452.0
496,497,5,Coimbra, Portugal,0.37,0.05,0.04,0.28,+,5.0,502.0
497,498,115,Bethlehem, United States,0.37,0.04,0.04,0.29,-,-115.0,383.0
498,499,65,Cagliari, Italy,0.37,0.06,0.03,0.28,-,-65.0,434.0
499,500,41,Leicester, United Kingdom,0.367,0.04,0.04,0.29,+,41.0,541.0
500,501,new,Cedar Rapids, United States,0.367,0.05,0.03,0.29,,,
501,502,29,Moncton, Canada,0.366,0.04,0.04,0.29,-,-29.0,473.0
502,503,new,London, Canada,0.366,0.05,0.03,0.29,,,
503,504,new,Chatham, United States,0.364,0.02,0.06,0.29,,,
504,505,69,Linkoping, Sweden,0.363,0.03,0.04,0.29,+,69.0,574.0
505,506,78,Aalborg, Denmark,0.361,0.04,0.04,0.28,+,78.0,584.0
506,507,10,Nagpur, India,0.358,0.07,0.03,0.26,-,-10.0,497.0
507,508,new,Nazareth, Israel,0.358,0.01,0.08,0.27,,,
508,509,50,Bozeman, United States,0.358,0.04,0.03,0.28,-,-50.0,459.0
509,510,new,Taoyuan City, Taiwan,0.357,0.02,0.06,0.28,,,
510,511,202,Genoa, Italy,0.357,0.05,0.04,0.27,+,202.0,713.0
511,512,174,Tehran, Iran,0.356,0.13,0.06,0.16,-,-174.0,338.0
512,513,72,Kharkiv, Ukraine,0.355,0.05,0.05,0.26,-,-72.0,441.0
513,514,63,Durango, United States,0.353,0.03,0.04,0.28,-,-63.0,451.0
514,515,72,Pensacola, United States,0.353,0.04,0.03,0.28,-,-72.0,443.0
515,516,85,Mendoza, Argentina,0.353,0.08,0.04,0.23,-,-85.0,431.0
516,517,7,Sao Jose dos Campos, Brazil,0.352,0.07,0.04,0.24,-,-7.0,510.0
517,518,6,State College, United States,0.349,0.04,0.04,0.28,+,6.0,524.0
518,519,new,Saarbrucken, Germany,0.348,0.03,0.04,0.27,,,
519,520,134,Wollongong, Australia,0.346,0.05,0.03,0.27,-,-134.0,386.0
520,521,new,Caesarea, Israel,0.346,0.02,0.06,0.26,,,
521,522,48,Exeter, United Kingdom,0.344,0.03,0.04,0.27,+,48.0,570.0
522,523,new,Peterborough, United Kingdom,0.344,0.04,0.03,0.27,,,
523,524,80,Duluth, United States,0.344,0.04,0.03,0.27,-,-80.0,444.0
524,525,25,Derby, United Kingdom,0.343,0.03,0.04,0.27,+,25.0,550.0
525,526,5,Kosice, Slovakia,0.343,0.04,0.04,0.26,-,-5.0,521.0
526,527,114,Caracas, Venezuela,0.342,0.15,0.06,0.13,-,-114.0,413.0
527,528,121,Leesburg, United States,0.339,0.03,0.04,0.27,-,-121.0,407.0
528,529,125,Champaign, United States,0.339,0.04,0.03,0.27,-,-125.0,404.0
529,530,1,Palma de Mallorca, Spain,0.338,0.04,0.04,0.26,-,-1.0,529.0
530,531,75,Limerick, Ireland,0.336,0.05,0.03,0.26,+,75.0,606.0
531,532,177,Chihuahua, Mexico,0.336,0.07,0.02,0.24,-,-177.0,355.0
532,533,188,Jena, Germany,0.333,0.04,0.03,0.26,+,188.0,721.0
533,534,175,College Station, United States,0.332,0.04,0.03,0.26,+,175.0,709.0
534,535,251,Chisinau, Moldova,0.33,0.07,0.03,0.23,-,-251.0,284.0
535,536,111,Danville, United States,0.327,0.02,0.05,0.26,-,-111.0,425.0
536,537,136,Annecy, France,0.326,0.03,0.04,0.25,+,136.0,673.0
537,538,29,Sherbrooke, Canada,0.325,0.03,0.04,0.25,+,29.0,567.0
538,539,new,Lebanon, United States,0.324,0.01,0.05,0.26,,,
539,540,new,Sheridan, United States,0.324,0.02,0.05,0.26,,,
540,541,36,Verona, Italy,0.322,0.04,0.04,0.24,-,-36.0,505.0
541,542,94,Vasteras, Sweden,0.32,0.04,0.03,0.25,+,94.0,636.0
542,543,91,Hasselt, Belgium,0.319,0.04,0.04,0.24,+,91.0,634.0
543,544,19,Bentonville, United States,0.319,0.03,0.04,0.25,-,-19.0,525.0
544,545,2,Northampton, United Kingdom,0.319,0.04,0.03,0.25,+,2.0,547.0
545,546,427,Hefei, China,0.318,0.05,0.04,0.23,+,427.0,973.0
546,547,294,Ames, United States,0.317,0.03,0.04,0.25,+,294.0,841.0
547,548,26,Murcia, Spain,0.316,0.04,0.03,0.24,-,-26.0,522.0
548,549,383,Middletown, United States,0.316,0.02,0.05,0.25,+,383.0,932.0
549,550,new,Cheltenham, United Kingdom,0.316,0.04,0.03,0.25,,,
550,551,new,Chester, United Kingdom,0.313,0.02,0.05,0.25,,,
551,552,164,Danbury, United States,0.313,0.01,0.05,0.25,+,164.0,716.0
552,553,new,Wuxi, China,0.313,0.05,0.04,0.22,,,
553,554,154,Agadir, Morocco,0.313,0.08,0.02,0.22,-,-154.0,400.0
554,555,99,San Luis Potosi, Mexico,0.312,0.07,0.02,0.22,-,-99.0,456.0
555,556,128,Blacksburg, United States,0.312,0.03,0.04,0.25,-,-128.0,428.0
556,557,new,Daejeon, South Korea,0.311,0.02,0.05,0.24,,,
557,558,193,Barrie, Canada,0.31,0.04,0.03,0.24,+,193.0,751.0
558,559,34,Arnhem, The Netherlands,0.309,0.03,0.04,0.24,+,34.0,593.0
559,560,163,Aberdeen, United Kingdom,0.309,0.02,0.04,0.24,+,163.0,723.0
560,561,97,Lakeland, United States,0.307,0.02,0.04,0.24,-,-97.0,464.0
561,562,56,Szczecin, Poland,0.306,0.04,0.03,0.23,-,-56.0,506.0
562,563,new,St. John's, Canada,0.305,0.02,0.04,0.24,,,
563,564,new,Lublin, Poland,0.304,0.04,0.03,0.23,,,
564,565,30,Madurai, India,0.303,0.05,0.04,0.22,-,-30.0,535.0
565,566,new,Vijayawada, India,0.302,0.06,0.03,0.22,,,
566,567,20,Mogadishu, Somalia,0.301,0.14,0.06,0.09,+,20.0,587.0
567,568,new,Durban, South Africa,0.301,0.06,0.03,0.21,,,
568,569,162,Treviso, Italy,0.3,0.05,0.03,0.23,+,162.0,731.0
569,570,new,Bielefeld, Germany,0.299,0.03,0.04,0.23,,,
570,571,71,Suwanee, United States,0.298,0.04,0.02,0.24,-,-71.0,500.0
571,572,125,Helsingborg, Sweden,0.298,0.04,0.02,0.24,-,-125.0,447.0
572,573,new,Neuchatel, Switzerland,0.298,0.03,0.04,0.23,,,
573,574,new,Regensburg, Germany,0.297,0.02,0.04,0.23,,,
574,575,new,Yantai, China,0.297,0.01,0.08,0.21,,,
575,576,78,Marlborough, United States,0.296,0.02,0.04,0.23,+,78.0,654.0
576,577,27,Novato, United States,0.292,0.03,0.03,0.23,+,27.0,604.0
577,578,80,Grand Junction, United States,0.291,0.02,0.04,0.23,+,80.0,658.0
578,579,99,Brentwood, United States,0.291,0.02,0.04,0.23,+,99.0,678.0
579,580,227,Santo Domingo, Dominican Republic,0.29,0.08,0.02,0.18,-,-227.0,353.0
580,581,96,Newport News, United States,0.289,0.04,0.02,0.23,-,-96.0,485.0
581,582,116,Uberlandia, Brazil,0.288,0.06,0.03,0.2,-,-116.0,466.0
582,583,new,Aveiro, Portugal,0.287,0.03,0.04,0.22,,,
583,584,18,Breda, The Netherlands,0.287,0.02,0.05,0.22,-,-18.0,566.0
584,585,211,Manassas, United States,0.287,0.02,0.04,0.23,+,211.0,796.0
585,586,25,Murrieta, United States,0.287,0.03,0.03,0.23,-,-25.0,561.0
586,587,116,Laguna Niguel, United States,0.286,0.02,0.04,0.23,+,116.0,703.0
587,588,190,Wurzburg, Germany,0.286,0.02,0.04,0.22,+,190.0,778.0
588,589,117,Fargo, United States,0.285,0.02,0.04,0.23,+,117.0,706.0
589,590,180,Split, Croatia,0.284,0.04,0.03,0.21,-,-180.0,410.0
590,591,122,Napa, United States,0.284,0.03,0.03,0.23,-,-122.0,469.0
591,592,4,Yverdon-les-Bains, Switzerland,0.282,0.02,0.04,0.22,+,4.0,596.0
592,593,84,Paphos, Cyprus,0.28,0.04,0.04,0.21,-,-84.0,509.0
593,594,266,Tallahassee, United States,0.28,0.03,0.03,0.22,-,-266.0,328.0
594,595,65,Tyler, United States,0.278,0.03,0.03,0.22,+,65.0,660.0
595,596,12,Swansea, United Kingdom,0.277,0.03,0.03,0.22,+,12.0,608.0
596,597,31,Kolding, Denmark,0.277,0.01,0.05,0.22,+,31.0,628.0
597,598,244,Thunder Bay, Canada,0.276,0.03,0.03,0.21,+,244.0,842.0
598,599,new,Preston, United Kingdom,0.274,0.03,0.03,0.22,,,
599,600,69,Truckee, United States,0.273,0.02,0.03,0.22,-,-69.0,531.0
600,601,29,Udaipur, India,0.273,0.04,0.04,0.2,+,29.0,630.0
601,602,169,Monterey, United States,0.271,0.02,0.03,0.21,-,-169.0,433.0
602,603,165,Myrtle Beach, United States,0.271,0.02,0.03,0.21,-,-165.0,438.0
603,604,158,Green Bay, United States,0.27,0.03,0.03,0.21,-,-158.0,446.0
604,605,29,Innsbruck, Austria,0.27,0.03,0.03,0.21,-,-29.0,576.0
605,606,257,Kanpur, India,0.268,0.05,0.03,0.19,+,257.0,863.0
606,607,new,Donostia-San Sebastian, Spain,0.268,0.03,0.03,0.21,,,
607,608,153,Asuncion, Paraguay,0.268,0.07,0.03,0.17,-,-153.0,455.0
608,609,222,Bhopal, India,0.267,0.05,0.03,0.19,+,222.0,831.0
609,610,289,Kaliningrad, Russia,0.264,0.03,0.04,0.19,+,289.0,899.0
610,611,new,Foshan, China,0.264,0.02,0.05,0.19,,,
611,612,62,Erie, United States,0.262,0.03,0.03,0.21,+,62.0,674.0
612,613,202,Abidjan, Ivory Coast,0.262,0.05,0.04,0.16,+,202.0,815.0
613,614,new,Gijón, Spain,0.26,0.02,0.04,0.2,,,
614,615,new,Girona, Spain,0.259,0.03,0.03,0.2,,,
615,616,77,Goiania, Brazil,0.259,0.06,0.02,0.18,-,-77.0,539.0
616,617,85,Portsmouth, United Kingdom,0.258,0.03,0.02,0.2,-,-85.0,532.0
617,618,23,Pontevedra, Spain,0.257,0.03,0.03,0.2,-,-23.0,595.0
618,619,new,Astoria, United States,0.257,0.02,0.04,0.2,,,
619,620,new,Phnom Penh, Cambodia,0.256,0.07,0.06,0.13,,,
620,621,29,Guatemala City, Guatemala,0.255,0.06,0.03,0.17,+,29.0,650.0
621,622,new,York, United Kingdom,0.253,0.03,0.03,0.2,,,
622,623,103,Almaty, Kazakhstan,0.253,0.03,0.04,0.18,-,-103.0,520.0
623,624,38,Praia, Cape Verde,0.253,0.1,0.02,0.13,+,38.0,662.0
624,625,97,Rajkot, India,0.25,0.04,0.03,0.18,+,97.0,722.0
625,626,new,Truro, United Kingdom,0.25,0.03,0.03,0.2,,,
626,627,new,Modiin-Maccabim-Reut, Israel,0.25,0.02,0.04,0.19,,,
627,628,37,Palermo, Italy,0.249,0.03,0.03,0.19,+,37.0,665.0
628,629,new,Charlottetown, Canada,0.248,0.03,0.03,0.19,,,
629,630,new,Basingstoke, United Kingdom,0.248,0.02,0.03,0.2,,,
630,631,41,Wiesbaden, Germany,0.248,0.03,0.02,0.19,+,41.0,672.0
631,632,154,Haarlem, The Netherlands,0.247,0.03,0.02,0.19,-,-154.0,478.0
632,633,184,Sarajevo, Bosnia and Herzegovina,0.247,0.05,0.03,0.16,-,-184.0,449.0
633,634,new,Magdeburg, Germany,0.246,0.02,0.04,0.19,,,
634,635,new,Metz, France,0.246,0.01,0.04,0.19,,,
635,636,116,Brantford, Canada,0.245,0.03,0.03,0.19,+,116.0,752.0
636,637,111,Chelyabinsk, Russia,0.245,0.03,0.03,0.18,-,-111.0,526.0
637,638,119,Andover, United Kingdom,0.244,0.02,0.04,0.19,+,119.0,757.0
638,639,128,Mobile, United States,0.244,0.03,0.02,0.19,-,-128.0,511.0
639,640,143,Newport, United States,0.243,0.02,0.04,0.19,+,143.0,783.0
640,641,158,Scranton, United States,0.243,0.02,0.03,0.19,+,158.0,799.0
641,642,69,Schenectady, United States,0.243,0.02,0.03,0.19,+,69.0,711.0
642,643,new,'s-Hertogenbosch, The Netherlands,0.241,0.02,0.04,0.18,,,
643,644,176,Allentown, United States,0.241,0.02,0.03,0.19,-,-176.0,468.0
644,645,229,Brunswick, United States,0.24,0.02,0.03,0.19,+,229.0,874.0
645,646,41,Panama City, United States,0.24,0.02,0.03,0.19,+,41.0,687.0
646,647,1,Pisa, Italy,0.239,0.02,0.04,0.18,-,-1.0,646.0
647,648,90,Vitoria, Brazil,0.239,0.06,0.02,0.17,-,-90.0,558.0
648,649,38,Antalya, Turkey,0.239,0.04,0.02,0.17,-,-38.0,611.0
649,650,25,Alicante, Spain,0.238,0.03,0.03,0.18,-,-25.0,625.0
650,651,69,Brescia, Italy,0.237,0.02,0.04,0.18,-,-69.0,582.0
651,652,125,Saint John, Canada,0.237,0.03,0.02,0.18,-,-125.0,527.0
652,653,35,Amersfoort, The Netherlands,0.237,0.03,0.02,0.18,+,35.0,688.0
653,654,33,Cancun, Mexico,0.237,0.03,0.03,0.17,-,-33.0,621.0
654,655,131,Szeged, Hungary,0.237,0.03,0.03,0.18,+,131.0,786.0
655,656,new,Newport, United Kingdom,0.236,0.02,0.03,0.19,,,
656,657,new,Loughborough, United Kingdom,0.236,0.02,0.03,0.19,,,
657,658,49,Corpus Christi, United States,0.235,0.01,0.04,0.19,+,49.0,707.0
658,659,235,Chico, United States,0.235,0.03,0.02,0.19,-,-235.0,424.0
659,660,126,Canton, United States,0.232,0.02,0.03,0.18,-,-126.0,534.0
660,661,223,Redding, United States,0.232,0.02,0.03,0.18,+,223.0,884.0
661,662,55,Granada, Spain,0.231,0.03,0.03,0.18,+,55.0,717.0
662,663,148,Lodz, Poland,0.231,0.03,0.03,0.18,+,148.0,811.0
663,664,76,Jodhpur, India,0.23,0.04,0.03,0.17,-,-76.0,588.0
664,665,65,Modena, Italy,0.229,0.02,0.03,0.17,-,-65.0,600.0
665,666,35,Bhubaneswar, India,0.227,0.03,0.04,0.16,-,-35.0,631.0
666,667,118,Waterloo, Belgium,0.227,0.02,0.03,0.17,-,-118.0,549.0
667,668,21,Yogyakarta, Indonesia,0.225,0.05,0.03,0.14,-,-21.0,647.0
668,669,6,Whitewater, United States,0.225,0.03,0.02,0.18,-,-6.0,663.0
669,670,105,Salvador, Brazil,0.224,0.03,0.04,0.16,+,105.0,775.0
670,671,88,Windsor, Canada,0.223,0.02,0.03,0.17,-,-88.0,583.0
671,672,138,Jyvaskyla, Finland,0.221,0.02,0.02,0.17,+,138.0,810.0
672,673,184,Temecula, United States,0.221,0.03,0.02,0.17,-,-184.0,489.0
673,674,4,Kalamazoo, United States,0.221,0.01,0.04,0.17,-,-4.0,670.0
674,675,85,Bergamo, Italy,0.221,0.03,0.03,0.17,-,-85.0,590.0
675,676,42,Jonkoping, Sweden,0.22,0.02,0.03,0.17,+,42.0,718.0
676,677,272,Tomsk, Russia,0.22,0.02,0.04,0.16,+,272.0,949.0
677,678,266,Kiel, Germany,0.22,0.01,0.04,0.17,+,266.0,944.0
678,679,257,Poughkeepsie, United States,0.219,0.01,0.04,0.17,+,257.0,936.0
679,680,138,Yekaterinburg, Russia,0.218,0.03,0.03,0.16,-,-138.0,542.0
680,681,116,Bradford, United Kingdom,0.218,0.02,0.03,0.17,-,-116.0,565.0
681,682,56,Hermosillo, Mexico,0.218,0.03,0.03,0.16,-,-56.0,626.0
682,683,125,Udine, Italy,0.218,0.03,0.02,0.16,+,125.0,808.0
683,684,new,Gilching, Germany,0.217,0.01,0.04,0.17,,,
684,685,9,Kingston, Jamaica,0.217,0.04,0.03,0.15,-,-9.0,676.0
685,686,105,Appleton, United States,0.216,0.02,0.03,0.17,-,-105.0,581.0
686,687,234,Viña del Mar, Chile,0.216,0.03,0.03,0.16,-,-234.0,453.0
687,688,55,Sonoma, United States,0.215,0.02,0.03,0.17,-,-55.0,633.0
688,689,47,Maceio, Brazil,0.215,0.03,0.04,0.15,+,47.0,736.0
689,690,new,Athens, United States,0.214,0.02,0.03,0.17,,,
690,691,27,Issaquah, United States,0.214,0.02,0.03,0.17,-,-27.0,664.0
691,692,185,Idaho Falls, United States,0.214,0.02,0.03,0.17,+,185.0,877.0
692,693,new,Holmdel, United States,0.214,0.02,0.03,0.17,,,
693,694,53,Ocala, United States,0.214,0.02,0.02,0.17,+,53.0,747.0
694,695,new,Mecca, Saudi Arabia,0.214,0.03,0.03,0.15,,,
695,696,86,Hilversum, The Netherlands,0.213,0.02,0.03,0.16,+,86.0,782.0
696,697,new,Hiroshima, Japan,0.213,0.02,0.03,0.16,,,
697,698,new,Fulton, United States,0.213,0.01,0.03,0.17,,,
698,699,67,Topeka, United States,0.212,0.02,0.03,0.17,-,-67.0,632.0
699,700,68,Klagenfurt am Wörthersee, Austria,0.212,0.02,0.03,0.17,+,68.0,768.0
700,701,151,Aalst, Belgium,0.212,0.02,0.03,0.16,+,151.0,852.0
701,702,new,Joplin, United States,0.211,0.01,0.03,0.17,,,
702,703,10,Toledo, United States,0.211,0.02,0.02,0.17,-,-10.0,693.0
703,704,184,Stockton, United States,0.21,0.02,0.03,0.17,+,184.0,888.0
704,705,130,Palm Springs, United States,0.21,0.01,0.03,0.17,-,-130.0,575.0
705,706,186,Brasov, Romania,0.21,0.03,0.03,0.16,+,186.0,892.0
706,707,31,Funchal, Portugal,0.21,0.03,0.02,0.16,+,31.0,738.0
707,708,122,Marbella, Spain,0.209,0.03,0.02,0.16,-,-122.0,586.0
708,709,new,New Providence, United States,0.208,0.01,0.03,0.17,,,
709,710,91,Pescara, Italy,0.208,0.03,0.02,0.16,-,-91.0,619.0
710,711,new,Raipur, India,0.206,0.03,0.03,0.15,,,
711,712,75,A Coruna, Spain,0.204,0.02,0.03,0.16,-,-75.0,637.0
712,713,new,Baoshan, China,0.204,0.03,0.03,0.14,,,
713,714,new,Queenstown, New Zealand,0.204,0.02,0.03,0.16,,,
714,715,72,Oviedo, Spain,0.203,0.02,0.03,0.16,+,72.0,787.0
715,716,new,Joensuu, Finland,0.203,0.02,0.03,0.16,,,
716,717,205,Fort Wayne, United States,0.202,0.02,0.02,0.16,-,-205.0,512.0
717,718,24,Slough, United Kingdom,0.202,0.01,0.03,0.16,-,-24.0,694.0
718,719,224,Reading, United States,0.202,0.03,0.02,0.16,-,-224.0,495.0
719,720,141,El Paso, United States,0.202,0.03,0.02,0.16,-,-141.0,579.0
720,721,223,Lubbock, United States,0.202,0.02,0.02,0.16,-,-223.0,498.0
721,722,27,Sharjah, United Arab Emirates,0.202,0.03,0.03,0.15,+,27.0,749.0
722,723,155,Middlesbrough, United Kingdom,0.202,0.03,0.02,0.16,-,-155.0,568.0
723,724,13,Dar es Salaam, Tanzania,0.2,0.07,0.03,0.1,+,13.0,737.0
724,725,124,Modesto, United States,0.2,0.02,0.02,0.16,-,-124.0,601.0
725,726,new,Vitoria, Spain,0.2,0.01,0.03,0.15,,,
726,727,38,Lawrence, United States,0.2,0.01,0.03,0.16,-,-38.0,689.0
727,728,121,The Woodlands, United States,0.2,0.02,0.02,0.16,-,-121.0,607.0
728,729,138,Le Bourget-du-Lac, France,0.199,0.01,0.03,0.15,+,138.0,867.0
729,730,74,Samara, Russia,0.199,0.03,0.03,0.14,+,74.0,804.0
730,731,27,Ede, The Netherlands,0.199,0.02,0.02,0.15,+,27.0,758.0
731,732,124,Woodbridge, United Kingdom,0.197,0.01,0.03,0.15,+,124.0,856.0
732,733,new,Ridgefield, United States,0.197,0.01,0.03,0.16,,,
733,734,22,Cuyahoga Falls, United States,0.196,0.02,0.02,0.16,+,22.0,756.0
734,735,new,Frome, United Kingdom,0.196,0.02,0.02,0.15,,,
735,736,145,Peoria, United States,0.195,0.01,0.03,0.15,+,145.0,881.0
736,737,25,Ancona, Italy,0.194,0.03,0.02,0.15,-,-25.0,712.0
737,738,190,Las Cruces, United States,0.194,0.01,0.03,0.15,+,190.0,928.0
738,739,42,Dehradun, India,0.194,0.03,0.03,0.14,-,-42.0,697.0
739,740,new,Patna, India,0.194,0.02,0.03,0.14,,,
740,741,new,Haikou, China,0.194,0.04,0.02,0.14,,,
741,742,300,Huntsville, United States,0.194,0.02,0.02,0.15,-,-300.0,442.0
742,743,149,Valparaiso, Chile,0.194,0.03,0.03,0.14,-,-149.0,594.0
743,744,19,Darwin, Australia,0.193,0.01,0.03,0.15,-,-19.0,725.0
744,745,new,Excelsior, United States,0.193,0.01,0.03,0.15,,,
745,746,new,Reims, France,0.192,0.02,0.02,0.15,,,
746,747,134,Siena, Italy,0.191,0.02,0.03,0.14,-,-134.0,613.0
747,748,new,Johor Bahru, Malaysia,0.191,0.02,0.03,0.14,,,
748,749,new,Tainan City, Taiwan,0.191,0.03,0.01,0.15,,,
749,750,new,Varanasi, India,0.191,0.01,0.04,0.14,,,
750,751,92,Bolzano, Italy,0.19,0.02,0.03,0.14,+,92.0,843.0
751,752,new,Saint Malo, France,0.19,0.01,0.03,0.15,,,
752,753,new,Sursee, Switzerland,0.19,0.01,0.03,0.15,,,
753,754,114,Shreveport, United States,0.189,0.02,0.02,0.15,-,-114.0,640.0
754,755,new,Gwangju, South Korea,0.189,0.01,0.03,0.14,,,
755,756,new,Mombasa, Kenya,0.189,0.04,0.02,0.14,,,
756,757,122,Steamboat Springs, United States,0.188,0.02,0.02,0.15,-,-122.0,635.0
757,758,122,Oxford, United States,0.188,0.01,0.03,0.15,+,122.0,880.0
758,759,24,Surabaya, Indonesia,0.188,0.04,0.03,0.12,-,-24.0,735.0
759,760,new,Grand Forks, United States,0.188,0.02,0.02,0.15,,,
760,761,78,Milton, Canada,0.187,0.01,0.03,0.15,-,-78.0,683.0
761,762,new,Padua, Italy,0.186,0.01,0.03,0.14,,,
762,763,new,Soest, The Netherlands,0.186,0.02,0.03,0.14,,,
763,764,new,Changzhou, China,0.186,0.01,0.04,0.13,,,
764,765,147,Larnaca, Cyprus,0.186,0.02,0.03,0.14,+,147.0,912.0
765,766,new,Amherst, United States,0.185,0.02,0.02,0.15,,,
766,767,28,Billings, United States,0.185,0.02,0.02,0.15,-,-28.0,739.0
767,768,102,Sapporo, Japan,0.184,0.03,0.02,0.14,-,-102.0,666.0
768,769,236,Zwolle, The Netherlands,0.184,0.03,0.02,0.14,-,-236.0,533.0
769,770,new,Halmstad, Sweden,0.183,0.01,0.03,0.14,,,
770,771,166,Flint, United States,0.183,0.02,0.02,0.14,-,-166.0,605.0
771,772,61,Goa, India,0.182,0.02,0.03,0.13,+,61.0,833.0
772,773,new,Besancon, France,0.182,0.01,0.03,0.14,,,
773,774,89,Janesville, United States,0.182,0.01,0.03,0.14,-,-89.0,685.0
774,775,146,Potsdam, United States,0.182,0.01,0.03,0.14,-,-146.0,629.0
775,776,157,Mooresville, United States,0.182,0.01,0.03,0.14,+,157.0,933.0
776,777,7,Plovdiv, Bulgaria,0.181,0.03,0.02,0.13,+,7.0,784.0
777,778,new,Maidenhead, United Kingdom,0.181,0.02,0.02,0.14,,,
778,779,new,Morro Bay, United States,0.181,0.01,0.03,0.14,,,
779,780,156,Castellon de la Plana, Spain,0.181,0.02,0.02,0.14,-,-156.0,624.0
780,781,new,Pecs, Hungary,0.18,0.02,0.03,0.13,,,
781,782,new,Rostock, Germany,0.18,0.02,0.02,0.14,,,
782,783,186,Brest, France,0.18,0.01,0.03,0.14,-,-186.0,597.0
783,784,137,Atlantic City, United States,0.18,0.01,0.03,0.14,+,137.0,921.0
784,785,new,Willemstad, The Netherlands,0.18,0.02,0.02,0.14,,,
785,786,new,Davao City, Philippines,0.18,0.03,0.02,0.13,,,
786,787,63,Ternopil, Ukraine,0.179,0.02,0.03,0.13,-,-63.0,724.0
787,788,new,Parsippany-Troy Hills, United States,0.179,0.01,0.03,0.14,,,
788,789,39,Cesena, Italy,0.179,0.02,0.03,0.14,-,-39.0,750.0
789,790,new,Fribourg, Switzerland,0.178,0.02,0.02,0.14,,,
790,791,105,Santiago de Compostela, Spain,0.178,0.01,0.03,0.14,+,105.0,896.0
791,792,145,Sudbury, United States,0.178,0.01,0.03,0.14,+,145.0,937.0
792,793,new,Alexander, United States,0.177,0.01,0.03,0.14,,,
793,794,167,Santander, Spain,0.177,0.02,0.02,0.14,-,-167.0,627.0
794,795,97,Juiz de Fora, Brazil,0.177,0.02,0.03,0.12,-,-97.0,698.0
795,796,new,Dundee, United Kingdom,0.177,0.01,0.03,0.14,,,
796,797,new,Klaipeda, Lithuania,0.176,0.02,0.02,0.14,,,
797,798,new,Stratford, Canada,0.175,0.02,0.02,0.14,,,
798,799,40,Bursa, Turkey,0.175,0.02,0.03,0.13,+,40.0,839.0
799,800,159,San Salvador, El Salvador,0.175,0.03,0.03,0.12,+,159.0,959.0
800,801,new,Roanoke, United States,0.175,0.01,0.02,0.14,,,
801,802,new,Andorra la Vella, Andorra,0.174,0.02,0.02,0.13,,,
802,803,new,Rostov on Don, Russia,0.174,0.02,0.03,0.13,,,
803,804,190,Bellingham, United States,0.173,0.02,0.02,0.14,-,-190.0,614.0
804,805,new,Augusta, United States,0.173,0.02,0.02,0.14,,,
805,806,269,Palm Desert, United States,0.173,0.02,0.02,0.14,-,-269.0,537.0
806,807,136,Texas City, United States,0.173,0.02,0.02,0.14,-,-136.0,671.0
807,808,20,Pamplona, Spain,0.173,0.02,0.02,0.13,-,-20.0,788.0
808,809,165,Ulyanovsk, Russia,0.173,0.01,0.03,0.13,-,-165.0,644.0
809,810,new,Biarritz, France,0.173,0.01,0.03,0.13,,,
810,811,new,Santiago de Queretaro, Mexico,0.172,0.03,0.02,0.12,,,
811,812,80,Zadar, Croatia,0.172,0.02,0.03,0.13,-,-80.0,732.0
812,813,49,Blackpool, United Kingdom,0.172,0.01,0.03,0.14,+,49.0,862.0
813,814,59,Binghamton, United States,0.172,0.01,0.02,0.14,+,59.0,873.0
814,815,107,Leon, Mexico,0.171,0.03,0.02,0.12,-,-107.0,708.0
815,816,new,Gaziantep, Turkey,0.171,0.02,0.03,0.13,,,
816,817,46,Verona, United States,0.17,0.01,0.02,0.14,-,-46.0,771.0
817,818,275,Tijuana, Mexico,0.17,0.03,0.02,0.12,-,-275.0,543.0
818,819,142,Osijek, Croatia,0.17,0.02,0.03,0.13,+,142.0,961.0
819,820,new,Carmel-by-the-Sea, United States,0.169,0.01,0.02,0.13,,,
820,821,57,Monroe, United States,0.169,0.01,0.02,0.13,+,57.0,878.0
821,822,new,Shijiazhuang, China,0.168,0.02,0.03,0.12,,,
822,823,159,Semarang, Indonesia,0.168,0.03,0.03,0.11,+,159.0,982.0
823,824,new,Montgomery, United States,0.168,0.01,0.02,0.13,,,
824,825,new,Caxias do Sul, Brazil,0.167,0.02,0.03,0.12,,,
825,826,new,Herzogenrath, Germany,0.166,0.01,0.03,0.13,,,
826,827,20,Dakar, Senegal,0.166,0.05,0.02,0.1,-,-20.0,807.0
827,828,117,Oldenburg, Germany,0.166,0.01,0.03,0.13,+,117.0,945.0
828,829,new,Hennigsdorf, Germany,0.165,0.01,0.03,0.13,,,
829,830,new,Windsor, United Kingdom,0.165,0.01,0.02,0.13,,,
830,831,98,Dordrecht, The Netherlands,0.165,0.02,0.02,0.13,-,-98.0,733.0
831,832,new,Biel Bienne, Switzerland,0.164,0.02,0.02,0.13,,,
832,833,new,Pattaya City, Thailand,0.163,0.02,0.03,0.12,,,
833,834,148,Auburn, United States,0.163,0.01,0.02,0.13,-,-148.0,686.0
834,835,5,Perugia, Italy,0.163,0.01,0.03,0.12,+,5.0,840.0
835,836,213,Barranquilla, Colombia,0.162,0.03,0.02,0.11,-,-213.0,623.0
836,837,new,Konstanz, Germany,0.162,0.02,0.02,0.13,,,
837,838,108,Perm, Russia,0.162,0.02,0.03,0.12,-,-108.0,730.0
838,839,144,Novo mesto, Slovenia,0.162,0.01,0.03,0.12,-,-144.0,695.0
839,840,new,Incheon, South Korea,0.161,0.02,0.02,0.12,,,
840,841,81,Orono, United States,0.161,0.01,0.02,0.13,-,-81.0,760.0
841,842,new,Changchun, China,0.161,0.02,0.03,0.11,,,
842,843,151,Gibraltar, Gibraltar,0.161,0.07,0.09,0.0,+,151.0,994.0
843,844,new,Plzen, Czechia,0.161,0.01,0.03,0.12,,,
844,845,91,Waterford, Ireland,0.16,0.02,0.02,0.12,-,-91.0,754.0
845,846,140,Sibiu, Romania,0.16,0.01,0.03,0.12,+,140.0,986.0
846,847,3,Mechelen, Belgium,0.16,0.01,0.02,0.12,+,3.0,850.0
847,848,68,Worcester, United Kingdom,0.159,0.01,0.02,0.13,-,-68.0,780.0
848,849,new,Shenyang, China,0.159,0.03,0.02,0.11,,,
849,850,10,Rzeszow, Poland,0.158,0.02,0.02,0.12,+,10.0,860.0
850,851,new,Bangor, United States,0.158,0.02,0.02,0.13,,,
851,852,97,Heerlen, The Netherlands,0.158,0.01,0.03,0.12,-,-97.0,755.0
852,853,8,Rabat, Morocco,0.158,0.02,0.03,0.11,-,-8.0,845.0
853,854,65,Tarragona, Spain,0.156,0.02,0.02,0.12,-,-65.0,789.0
854,855,129,Fermo, Italy,0.155,0.02,0.02,0.12,-,-129.0,726.0
855,856,new,Windhoek, Namibia,0.155,0.04,0.02,0.09,,,
856,857,new,Syracuse, Italy,0.154,0.02,0.02,0.12,,,
857,858,10,Trabzon, Turkey,0.153,0.02,0.02,0.11,-,-10.0,848.0
858,859,44,Zielona Gora, Poland,0.153,0.01,0.03,0.12,+,44.0,903.0
859,860,new,Arcata, United States,0.153,0.01,0.02,0.12,,,
860,861,new,Great Falls, United States,0.153,0.01,0.02,0.12,,,
861,862,101,Shelton, United States,0.153,0.01,0.02,0.12,-,-101.0,761.0
862,863,246,Wilsonville, United States,0.152,0.01,0.02,0.12,-,-246.0,617.0
863,864,97,Conroe, United States,0.152,0.01,0.02,0.12,-,-97.0,767.0
864,865,new,Farnborough, United Kingdom,0.152,0.01,0.02,0.12,,,
865,866,175,Winchester, United States,0.152,0.01,0.02,0.12,-,-175.0,691.0
866,867,new,Arezzo, Italy,0.151,0.01,0.03,0.11,,,
867,868,290,Tilburg, The Netherlands,0.151,0.01,0.02,0.12,-,-290.0,578.0
868,869,91,Medan, Indonesia,0.15,0.03,0.03,0.1,+,91.0,960.0
869,870,new,Taichung City, Taiwan,0.15,0.02,0.01,0.12,,,
870,871,new,Sunderland, United Kingdom,0.15,0.01,0.02,0.12,,,
871,872,95,Rosario, Argentina,0.15,0.03,0.02,0.1,-,-95.0,777.0
872,873,new,Bedford, United Kingdom,0.15,0.01,0.02,0.12,,,
873,874,134,Bowling Green, United States,0.15,0.01,0.02,0.12,-,-134.0,740.0
874,875,18,Huddersfield, United Kingdom,0.15,0.01,0.02,0.12,-,-18.0,857.0
875,876,new,Hooksett, United States,0.15,0.01,0.02,0.12,,,
876,877,72,Lusaka, Zambia,0.149,0.04,0.02,0.1,-,-72.0,805.0
877,878,72,Londrina, Brazil,0.148,0.02,0.02,0.1,-,-72.0,806.0
878,879,new,Kunming, China,0.148,0.02,0.03,0.1,,,
879,880,new,Jamshedpur, India,0.148,0.02,0.02,0.11,,,
880,881,new,Herning, Denmark,0.148,0.01,0.02,0.12,,,
881,882,84,Tashkent, Uzbekistan,0.148,0.02,0.03,0.1,+,84.0,966.0
882,883,80,Dnipro, Ukraine,0.147,0.01,0.03,0.11,-,-80.0,803.0
883,884,new,Parma, Italy,0.146,0.02,0.02,0.11,,,
884,885,new,Aurangabad, India,0.145,0.01,0.03,0.1,,,
885,886,40,Puerto del Rosario, Spain,0.145,0.02,0.02,0.11,-,-40.0,846.0
886,887,60,Craiova, Romania,0.144,0.01,0.03,0.11,+,60.0,947.0
887,888,39,Duisburg, Germany,0.144,0.01,0.02,0.11,-,-39.0,849.0
888,889,new,Blumenau, Brazil,0.144,0.02,0.03,0.1,,,
889,890,new,Białystok, Poland,0.144,0.01,0.02,0.11,,,
890,891,new,Ajaccio, France,0.144,0.01,0.02,0.11,,,
891,892,79,Celaya, Mexico,0.144,0.01,0.03,0.1,+,79.0,971.0
892,893,new,Bielsko-Biala, Poland,0.143,0.01,0.02,0.11,,,
893,894,new,Wesseling, Germany,0.143,0.01,0.02,0.11,,,
894,895,6,Mantua, Italy,0.143,0.01,0.02,0.11,+,6.0,901.0
895,896,46,Peterborough, Canada,0.142,0.01,0.02,0.11,+,46.0,942.0
896,897,277,Ashland, United States,0.142,0.01,0.02,0.11,-,-277.0,620.0
897,898,new,Sao Leopoldo, Brazil,0.142,0.01,0.03,0.1,,,
898,899,17,Volgograd, Russia,0.141,0.02,0.02,0.1,+,17.0,916.0
899,900,new,Logrono, Spain,0.141,0.02,0.02,0.11,,,
900,901,35,Tours, France,0.14,0.01,0.02,0.11,-,-35.0,866.0
901,902,81,Ioannina, Greece,0.137,0.01,0.03,0.1,+,81.0,983.0
902,903,111,Shikarpur, India,0.137,0.02,0.02,0.1,-,-111.0,792.0
903,904,new,Kaohsiung City, Taiwan,0.137,0.02,0.01,0.11,,,
904,905,new,Nizhny Novgorod, Russia,0.136,0.01,0.03,0.1,,,
905,906,6,Port Harcourt, Nigeria,0.135,0.04,0.02,0.08,-,-6.0,900.0
906,907,84,Puri, India,0.135,0.01,0.03,0.1,+,84.0,991.0
907,908,96,Maringá, Brazil,0.135,0.01,0.03,0.09,-,-96.0,812.0
908,909,new,Tsukuba, Japan,0.134,0.01,0.02,0.1,,,
909,910,131,Kassel, Germany,0.134,0.01,0.02,0.1,-,-131.0,779.0
910,911,new,Limoges, France,0.133,0.01,0.02,0.1,,,
911,912,new,Udupi, India,0.131,0.01,0.03,0.1,,,
912,913,123,Concepcion, Chile,0.131,0.02,0.02,0.1,-,-123.0,790.0
913,914,new,Nahariyya, Israel,0.131,0.01,0.02,0.1,,,
914,915,47,Dundalk, Ireland,0.131,0.01,0.02,0.1,-,-47.0,868.0
915,916,new,Senai, Malaysia,0.131,0.01,0.02,0.1,,,
916,917,new,Reggio Emilia, Italy,0.129,0.01,0.02,0.1,,,
917,918,426,Merida, Mexico,0.128,0.02,0.02,0.09,-,-426.0,492.0
918,919,128,Rovereto, Italy,0.128,0.01,0.02,0.1,-,-128.0,791.0
919,920,3,Nashik, India,0.127,0.01,0.02,0.09,-,-3.0,917.0
920,921,9,Lynchburg, United States,0.126,0.01,0.02,0.1,+,9.0,930.0
921,922,new,Hargeisa, Somalia,0.126,0.06,0.03,0.04,,,
922,923,114,Victoria, Seychelles,0.126,0.02,0.03,0.08,-,-114.0,809.0
923,924,new,San Ġiljan, Malta,0.125,0.01,0.03,0.09,,,
924,925,225,Lichfield, United Kingdom,0.125,0.01,0.02,0.1,-,-225.0,700.0
925,926,162,Gulfport, United States,0.125,0.01,0.02,0.1,-,-162.0,764.0
926,927,1,Hartland, United States,0.125,0.01,0.02,0.1,-,-1.0,926.0
927,928,90,Salinas, United States,0.125,0.01,0.02,0.1,-,-90.0,838.0
928,929,38,Westborough, United States,0.125,0.01,0.02,0.1,-,-38.0,891.0
929,930,new,Belem, Brazil,0.124,0.02,0.02,0.09,,,
930,931,44,Nanning, China,0.124,0.02,0.02,0.09,+,44.0,975.0
931,932,new,Medina, Saudi Arabia,0.123,0.01,0.03,0.09,,,
932,933,new,Agra, India,0.123,0.01,0.02,0.09,,,
933,934,28,Harare, Zimbabwe,0.123,0.04,0.03,0.06,+,28.0,962.0
934,935,182,Wokingham, United Kingdom,0.123,0.01,0.02,0.1,-,-182.0,753.0
935,936,65,Campo Grande, Brazil,0.122,0.01,0.03,0.09,-,-65.0,871.0
936,937,238,Hirtshals, Denmark,0.121,0.01,0.02,0.1,-,-238.0,699.0
937,938,10,Bauru, Brazil,0.121,0.01,0.03,0.08,+,10.0,948.0
938,939,new,Nanchang, China,0.12,0.01,0.02,0.09,,,
939,940,174,Denpasar, Indonesia,0.12,0.03,0.02,0.08,-,-174.0,766.0
940,941,80,Rhodes, Greece,0.119,0.01,0.02,0.09,-,-80.0,861.0
941,942,194,Joao Pessoa, Brazil,0.119,0.02,0.02,0.08,-,-194.0,748.0
942,943,45,Manaus, Brazil,0.119,0.02,0.02,0.08,-,-45.0,898.0
943,944,new,Baguio, Philippines,0.118,0.02,0.02,0.08,,,
944,945,44,Kayseri, Turkey,0.118,0.01,0.02,0.09,+,44.0,989.0
945,946,51,Taganrog, Russia,0.117,0.01,0.02,0.09,-,-51.0,895.0
946,947,new,Omsk, Russia,0.117,0.01,0.02,0.09,,,
947,948,new,Eskişehir, Turkey,0.116,0.01,0.02,0.09,,,
948,949,20,Natal, Brazil,0.116,0.01,0.02,0.08,+,20.0,969.0
949,950,3,Colima, Mexico,0.112,0.01,0.02,0.08,+,3.0,953.0
950,951,new,Guayaquil, Ecuador,0.109,0.02,0.02,0.07,,,
951,952,new,Luanda, Angola,0.109,0.03,0.03,0.05,,,
952,953,new,Sandakan, Malaysia,0.108,0.01,0.02,0.08,,,
953,954,new,Ragusa, Italy,0.106,0.01,0.02,0.08,,,
954,955,new,Vila Velha, Brazil,0.105,0.01,0.02,0.07,,,
955,956,21,Rawalpindi, Pakistan,0.105,0.03,0.02,0.06,+,21.0,977.0
956,957,30,Torreon, Mexico,0.104,0.01,0.02,0.07,+,30.0,987.0
957,958,61,Montego Bay, Jamaica,0.103,0.01,0.02,0.07,-,-61.0,897.0
958,959,new,Székesfehérvár, Hungary,0.102,0.01,0.02,0.08,,,
959,960,38,Faisalabad, Pakistan,0.1,0.02,0.03,0.05,+,38.0,998.0
960,961,new,Antananarivo, Madagascar,0.098,0.04,0.02,0.04,,,
961,962,18,Managua, Nicaragua,0.097,0.02,0.03,0.05,+,18.0,980.0
962,963,45,Allahabad, India,0.094,0.01,0.02,0.07,-,-45.0,918.0
963,964,45,Nizamabad, India,0.094,0.01,0.02,0.07,-,-45.0,919.0
964,965,28,Ramallah, Palestine,0.093,0.03,0.02,0.05,+,28.0,993.0
965,966,6,Reynosa, Mexico,0.092,0.01,0.02,0.07,+,6.0,972.0
966,967,new,Harbin, China,0.09,0.01,0.02,0.06,,,
967,968,new,Taiyuan, China,0.089,0.01,0.02,0.06,,,
968,969,63,Douala, Cameroon,0.089,0.03,0.02,0.04,-,-63.0,906.0
969,970,new,Bamako, Mali,0.087,0.03,0.03,0.04,,,
970,971,107,Santos, Brazil,0.086,0.01,0.02,0.06,-,-107.0,864.0
971,972,6,San Pedro Sula, Honduras,0.085,0.02,0.02,0.05,+,6.0,978.0
972,973,17,Gaborone, Botswana,0.085,0.01,0.02,0.05,-,-17.0,956.0
973,974,22,Alexandria, Egypt,0.085,0.01,0.03,0.05,+,22.0,996.0
974,975,new,Sunchales, Argentina,0.082,0.01,0.02,0.06,,,
975,976,71,Belize City, Belize,0.082,0.01,0.03,0.04,-,-71.0,905.0
976,977,new,Khulna, Bangladesh,0.08,0.01,0.03,0.04,,,
977,978,new,Enugu, Nigeria,0.079,0.01,0.02,0.05,,,
978,979,9,Benin City, Nigeria,0.079,0.02,0.02,0.05,+,9.0,988.0
979,980,new,Cochabamba, Bolivia,0.078,0.02,0.02,0.04,,,
980,981,14,Kano, Nigeria,0.076,0.01,0.02,0.04,+,14.0,995.0
981,982,new,Buea, Cameroon,0.076,0.02,0.02,0.04,,,
982,983,16,Maputo, Mozambique,0.074,0.02,0.02,0.03,-,-16.0,967.0
983,984,16,Algiers, Algeria,0.071,0.01,0.03,0.03,-,-16.0,968.0
984,985,7,Kabul, Afghanistan,0.07,0.02,0.02,0.03,+,7.0,992.0
985,986,new,Yaounde, Cameroon,0.069,0.01,0.02,0.03,,,
986,987,new,Saint Peter Port, Guernsey,0.069,0.05,0.02,0.0,,,
987,988,new,Jhelum, Pakistan,0.068,0.01,0.02,0.04,,,
988,989,new,Port-au-Prince, Haiti,0.068,0.03,0.02,0.03,,,
989,990,new,Multan, Pakistan,0.067,0.01,0.02,0.04,,,
990,991,8,Kinshasa, Democratic Republic of the Congo,0.066,0.02,0.03,0.02,+,8.0,999.0
991,992,new,Douglas, Isle of Man,0.064,0.01,0.05,0.0,,,
992,993,new,Chattogram, Bangladesh,0.064,0.01,0.02,0.03,,,
993,994,3,Bridgetown, Barbados,0.062,0.01,0.02,0.03,+,3.0,997.0
994,995,new,Cotonou, Benin,0.061,0.01,0.02,0.03,,,
995,996,26,Ouagadougou, Burkina Faso,0.06,0.02,0.02,0.02,-,-26.0,970.0
996,997,new,Baghdad, Iraq,0.058,0.01,0.02,0.03,,,
997,998,13,Mbabane, Swaziland,0.057,0.01,0.02,0.03,-,-13.0,985.0
998,999,new,Conakry, Guinea,0.047,0.01,0.02,0.02,,,
999,1000,new,Sanaa, Yemen,0.037,0.01,0.02,0.01,,,
